<?xml version="1.0" encoding="UTF-8" standalone="no"?>
<!-- Created with Inkscape (http://www.inkscape.org/) -->
<svg
   xmlns:dc="http://purl.org/dc/elements/1.1/"
   xmlns:cc="http://creativecommons.org/ns#"
   xmlns:rdf="http://www.w3.org/1999/02/22-rdf-syntax-ns#"
   xmlns:svg="http://www.w3.org/2000/svg"
   xmlns="http://www.w3.org/2000/svg"
   xmlns:xlink="http://www.w3.org/1999/xlink"
   xmlns:sodipodi="http://sodipodi.sourceforge.net/DTD/sodipodi-0.dtd"
   xmlns:inkscape="http://www.inkscape.org/namespaces/inkscape"
   width="744.09448819"
   height="1052.3622047"
   id="svg2"
   sodipodi:version="0.32"
   inkscape:version="0.46"
   sodipodi:docname="logo_fullname.svg"
   inkscape:output_extension="org.inkscape.output.svg.inkscape">
  <defs
     id="defs4">
    <inkscape:perspective
       sodipodi:type="inkscape:persp3d"
       inkscape:vp_x="0 : 526.18109 : 1"
       inkscape:vp_y="0 : 1000 : 0"
       inkscape:vp_z="744.09448 : 526.18109 : 1"
       inkscape:persp3d-origin="372.04724 : 350.78739 : 1"
       id="perspective10" />
    <inkscape:perspective
       id="perspective2447"
       inkscape:persp3d-origin="372.04724 : 350.78739 : 1"
       inkscape:vp_z="744.09448 : 526.18109 : 1"
       inkscape:vp_y="0 : 1000 : 0"
       inkscape:vp_x="0 : 526.18109 : 1"
       sodipodi:type="inkscape:persp3d" />
  </defs>
  <sodipodi:namedview
     id="base"
     pagecolor="#ffffff"
     bordercolor="#666666"
     borderopacity="1.0"
     gridtolerance="10000"
     guidetolerance="10"
     objecttolerance="10"
     inkscape:pageopacity="0.0"
     inkscape:pageshadow="2"
     inkscape:zoom="1"
     inkscape:cx="364.96093"
     inkscape:cy="624.14184"
     inkscape:document-units="px"
     inkscape:current-layer="layer1"
     showgrid="false"
     showguides="true"
     inkscape:guide-bbox="true"
     inkscape:window-width="1014"
     inkscape:window-height="726"
     inkscape:window-x="-5"
     inkscape:window-y="35">
    <inkscape:grid
       type="xygrid"
       id="grid2487" />
    <sodipodi:guide
       orientation="0,1"
       position="508,546"
       id="guide2416" />
    <sodipodi:guide
       orientation="0,1"
       position="219,444"
       id="guide2418" />
    <sodipodi:guide
       orientation="0,1"
       position="319,827"
       id="guide2424" />
    <sodipodi:guide
       orientation="0,1"
       position="312,725"
       id="guide2426" />
    <sodipodi:guide
       orientation="-0.70710678,0.70710678"
       position="19,893"
       id="guide2514" />
    <sodipodi:guide
       orientation="1,0"
       position="276,529"
       id="guide2516" />
  </sodipodi:namedview>
  <metadata
     id="metadata7">
    <rdf:RDF>
      <cc:Work
         rdf:about="">
        <dc:format>image/svg+xml</dc:format>
        <dc:type
           rdf:resource="http://purl.org/dc/dcmitype/StillImage" />
      </cc:Work>
    </rdf:RDF>
  </metadata>
  <g
     inkscape:label="Layer 1"
     inkscape:groupmode="layer"
     id="layer1">
    <g
       id="g2478"
       inkscape:export-filename="/home/rgrp/hgroot/m.okfn.org/gfx/logo/logo_fullname_strapline.png"
       inkscape:export-xdpi="90"
       inkscape:export-ydpi="90">
      <image
         xlink:href="okf_logo_white_and_green.png"
         sodipodi:absref="/home/rgrp/svnroot/okfn/trunk/gfx/logo/okf_logo_white_and_green.png"
         width="100"
         height="109"
         id="image2449"
         x="170.99998"
         y="363.71936" />
      <g
         id="g2470">
        <text
           sodipodi:linespacing="117%"
           id="text2461"
           y="436.35275"
           x="276.44763"
           style="font-size:32px;font-style:normal;font-variant:normal;font-weight:normal;font-stretch:normal;text-align:start;line-height:116.99999571%;writing-mode:lr-tb;text-anchor:start;fill:#999999;fill-opacity:1;stroke:none;stroke-width:1px;stroke-linecap:butt;stroke-linejoin:miter;stroke-opacity:1;font-family:Sans;-inkscape-font-specification:Sans"
           xml:space="preserve"><tspan
             id="tspan2463"
             y="436.35275"
             x="276.44763"
             sodipodi:role="line">Foundation</tspan></text>
        <text
           xml:space="preserve"
           style="font-size:32px;font-style:normal;font-variant:normal;font-weight:normal;font-stretch:normal;text-align:start;line-height:116.99999571%;writing-mode:lr-tb;text-anchor:start;fill:#999999;fill-opacity:1;stroke:none;stroke-width:1px;stroke-linecap:butt;stroke-linejoin:miter;stroke-opacity:1;font-family:Sans;-inkscape-font-specification:Sans"
           x="274.44763"
           y="400.23694"
           id="text2473"
           sodipodi:linespacing="117%"><tspan
             sodipodi:role="line"
             x="274.44763"
             y="400.23694"
             id="tspan2475">Open Knowledge</tspan></text>
        <text
           xml:space="preserve"
           style="font-size:14px;font-style:normal;font-variant:normal;font-weight:normal;font-stretch:normal;text-align:start;line-height:116.99999571%;writing-mode:lr-tb;text-anchor:start;fill:#999999;fill-opacity:1;stroke:none;stroke-width:1px;stroke-linecap:butt;stroke-linejoin:miter;stroke-opacity:1;font-family:Sans;-inkscape-font-specification:Sans"
           x="276.44763"
           y="460.35275"
           id="text2493"
           sodipodi:linespacing="117%"><tspan
             sodipodi:role="line"
             x="276.44763"
             y="460.35275"
             id="tspan2495"
             style="font-size:14px;font-style:normal;font-variant:normal;font-weight:normal;font-stretch:normal;text-align:start;line-height:116.99999571%;writing-mode:lr-tb;text-anchor:start;font-family:Sans;-inkscape-font-specification:Sans">Promoting Open Knowledge In a Digital Age</tspan></text>
      </g>
    </g>
    <g
       id="g2462"
       inkscape:export-filename="/home/rgrp/hgroot/m.okfn.org/gfx/logo/logo_fullname.png"
       inkscape:export-xdpi="90"
       inkscape:export-ydpi="90">
      <image
         inkscape:export-ydpi="90"
         inkscape:export-xdpi="90"
         inkscape:export-filename="/home/rgrp/svnroot/okfn/trunk/gfx/logo/logo_fullname.png"
         y="223.71936"
         x="170.99998"
         id="image2537"
         height="109"
         width="100"
         sodipodi:absref="/home/rgrp/svnroot/okfn/trunk/gfx/logo/okf_logo_white_and_green.png"
         xlink:href="okf_logo_white_and_green.png" />
      <g
         id="g2456">
        <text
           xml:space="preserve"
           style="font-size:32px;font-style:normal;font-variant:normal;font-weight:normal;font-stretch:normal;text-align:start;line-height:116.99999571%;writing-mode:lr-tb;text-anchor:start;fill:#999999;fill-opacity:1;stroke:none;stroke-width:1px;stroke-linecap:butt;stroke-linejoin:miter;stroke-opacity:1;font-family:Sans;-inkscape-font-specification:Sans"
           x="276.44763"
           y="306.20697"
           id="text2539"
           sodipodi:linespacing="117%"><tspan
             sodipodi:role="line"
             x="276.44763"
             y="306.20697"
             id="tspan2541">Foundation</tspan></text>
        <text
           sodipodi:linespacing="117%"
           id="text2543"
           y="270.09116"
           x="274.44763"
           style="font-size:32px;font-style:normal;font-variant:normal;font-weight:normal;font-stretch:normal;text-align:start;line-height:116.99999571%;writing-mode:lr-tb;text-anchor:start;fill:#999999;fill-opacity:1;stroke:none;stroke-width:1px;stroke-linecap:butt;stroke-linejoin:miter;stroke-opacity:1;font-family:Sans;-inkscape-font-specification:Sans"
           xml:space="preserve"><tspan
             id="tspan2545"
             y="270.09116"
             x="274.44763"
             sodipodi:role="line">Open Knowledge</tspan></text>
      </g>
    </g>
    <g
       id="g2532"
       inkscape:export-filename="/home/rgrp/hgroot/m.okfn.org/gfx/logo/logo_fullname_narrow.png"
       inkscape:export-xdpi="90"
       inkscape:export-ydpi="90">
      <image
         xlink:href="okf_logo_white_and_green.png"
         sodipodi:absref="/home/rgrp/svnroot/okfn/trunk/gfx/logo/okf_logo_white_and_green.png"
         width="100"
         height="109"
         id="image2394"
         x="170.99998"
         y="503.71936"
         inkscape:export-filename="/home/rgrp/svnroot/okfn/trunk/gfx/logo/logo_fullname.png"
         inkscape:export-xdpi="90"
         inkscape:export-ydpi="90" />
      <g
         id="g2524">
        <text
           sodipodi:linespacing="117%"
           id="text2398"
           y="600.20697"
           x="273.35583"
           style="font-size:32px;font-style:normal;font-variant:normal;font-weight:normal;font-stretch:normal;text-align:start;line-height:116.99999571%;writing-mode:lr-tb;text-anchor:start;fill:#999999;fill-opacity:1;stroke:none;stroke-width:1px;stroke-linecap:butt;stroke-linejoin:miter;stroke-opacity:1;font-family:Sans;-inkscape-font-specification:Sans"
           xml:space="preserve"><tspan
             id="tspan2400"
             y="600.20697"
             x="273.35583"
             sodipodi:role="line">Foundation</tspan></text>
        <text
           xml:space="preserve"
           style="font-size:32px;font-style:normal;font-variant:normal;font-weight:normal;font-stretch:normal;text-align:start;line-height:116.99999571%;writing-mode:lr-tb;text-anchor:start;fill:#999999;fill-opacity:1;stroke:none;stroke-width:1px;stroke-linecap:butt;stroke-linejoin:miter;stroke-opacity:1;font-family:Sans;-inkscape-font-specification:Sans"
           x="272.44763"
           y="536.09113"
           id="text2402"
           sodipodi:linespacing="117%"><tspan
             sodipodi:role="line"
             x="272.44763"
             y="536.09113"
             id="tspan2404">Open</tspan></text>
        <text
           sodipodi:linespacing="117%"
           id="text2408"
           y="568.09113"
           x="273.35583"
           style="font-size:32px;font-style:normal;font-variant:normal;font-weight:normal;font-stretch:normal;text-align:start;line-height:116.99999571%;writing-mode:lr-tb;text-anchor:start;fill:#999999;fill-opacity:1;stroke:none;stroke-width:1px;stroke-linecap:butt;stroke-linejoin:miter;stroke-opacity:1;font-family:Sans;-inkscape-font-specification:Sans"
           xml:space="preserve"><tspan
             id="tspan2410"
             y="568.09113"
             x="273.35583"
             sodipodi:role="line">Knowledge</tspan></text>
      </g>
    </g>
  </g>
</svg>
